{
    "useSegment": "user",
    "elements": [
        {
            "type": "static",
            "name": "intro",
            "value": "Some plain text where <, &, etc. gets escaped."
        },
        "filler",
        {
            "type": "static",
            "name": "intro",
            "value": "This must cause a load failure."
        }
    ]
}
