{
    "name": "ObjectOne",
    "primary": "id",
    "autoLabels": {
        "heading": "auto.*.head"
    },
    "roles": {
        "*": "view",
        "admin": "write"
    },
    "objects": [
        {
            "name": "id",
            "description": "The first object",
            "presentation": {
                "cols": "1",
                "type": "text"
            },
            "store": {
                "type": "int",
                "size": "10"
            }
        },
        {
            "name": "id2",
            "presentation": {
                "cols": "1",
                "type": "text"
            },
            "roles": {
                "admin": "view"
            },
            "store": {
                "type": "int",
                "size": "10"
            }
        }
    ]
}
