{
    "name": "id",
    "description": "system managed object identifier",
    "population": {
        "source": "fixed",
        "list": null
    },
    "presentation": {
        "type": "text",
        "cols": 1
    },
    "roles": {
        "*": "hide",
        "admin": "view",
        "public": "none",
        "super": "write"
    },
    "store": {
        "type": "int",
        "size": "10"
    }
}