{
    "name": "registrationForm",
    "useSegment": "members",
    "elements": [
        {
            "type": "field",
            "object": "membershipLevel",
            "autofocus": true,
            "default": "IND",
            "triggers": [
                {
                    "event": "change",
                    "value": [
                        "IND",
                        "STU",
                        "FAM"
                    ],
                    "actions": [
                        {
                            "target": "{business-enable}",
                            "subject": "enable",
                            "value": false
                        },
                        {
                            "target": "{business-enable}",
                            "subject": "checked",
                            "value": false
                        },
                        {
                            "target": "{business}",
                            "subject": "display",
                            "value": false
                        },
                        {
                            "target": "{person-enable}",
                            "subject": "enable",
                            "value": true
                        },
                        {
                            "target": "scratch_feeSelect",
                            "subject": "display",
                            "value": false
                        }
                    ]
                },
                {
                    "event": "change",
                    "value": [
                        "IND",
                        "STU"
                    ],
                    "actions": [
                        {
                            "target": "{family}",
                            "subject": "display",
                            "value": false
                        }
                    ]
                },
                {
                    "event": "change",
                    "value": "FAM",
                    "actions": [
                        {
                            "target": "{family}",
                            "subject": "display",
                            "value": true
                        }
                    ]
                },
                {
                    "event": "change",
                    "value": [
                        "BUS",
                        "FEL"
                    ],
                    "actions": [
                        {
                            "target": "{family}",
                            "subject": "display",
                            "value": false
                        },
                        {
                            "target": "{business}",
                            "subject": "display",
                            "value": true
                        },
                        {
                            "target": "{business-enable}",
                            "subject": "enable",
                            "value": true
                        },
                        {
                            "target": "{person-enable}",
                            "subject": "enable",
                            "value": false
                        },
                        {
                            "target": "{person-enable}",
                            "subject": "checked",
                            "value": false
                        },
                        {
                            "target": "scratch_feeSelect",
                            "subject": "display",
                            "value": false
                        }
                    ]
                },
                {
                    "event": "change",
                    "value": [
                        "PAT",
                        "SPO"
                    ],
                    "actions": [
                        {
                            "target": "{family}",
                            "subject": "display",
                            "value": false
                        },
                        {
                            "target": "{business}",
                            "subject": "display",
                            "value": true
                        },
                        {
                            "target": "{business-enable}",
                            "subject": "enable",
                            "value": true
                        },
                        {
                            "target": "{person-enable}",
                            "subject": "enable",
                            "value": true
                        },
                        {
                            "target": "scratch_feeSelect",
                            "subject": "display",
                            "value": true
                        }
                    ]
                },
                {
                    "event": "change",
                    "actions": [
                        {
                            "subject": "script",
                            "value": "setFeeAttributes(element);"
                        }
                    ]
                }
            ]
        },
        {
            "type": "section",
            "labels": {
                "heading": "Primary Member"
            },
            "elements": [
                {
                    "type": "cell",
                    "elements": [
                        {
                            "type": "field",
                            "object": "primaryFirstName"
                        },
                        {
                            "type": "field",
                            "object": "primaryLastName"
                        }
                    ]
                },
                {
                    "type": "field",
                    "object": "primaryEmail"
                },
                {
                    "type": "field",
                    "object": "primaryPhone"
                },
                {
                    "type": "field",
                    "object": "primaryPublicName"
                },
                {
                    "type": "field",
                    "object": "primaryMemberType",
                    "triggers": [
                        {
                            "event": "change",
                            "value": "VA",
                            "actions": [
                                {
                                    "target": "{firstVA}",
                                    "subject": "display",
                                    "value": "checked"
                                }
                            ]
                        },
                        {
                            "event": "change",
                            "value": "XX",
                            "actions": [
                                {
                                    "target": "{firstXX}",
                                    "subject": "display",
                                    "value": "checked"
                                }
                            ]
                        }
                    ]
                },
                {
                    "type": "field",
                    "object": "primaryTypeOther",
                    "memberOf": "firstXX",
                    "display": false
                },
                {
                    "type": "field",
                    "object": "primaryVisualArtsMedia",
                    "memberOf": "firstVA",
                    "display": false,
                    "show": "optionwidth:3"
                },
                {
                    "type": "field",
                    "object": "primaryVisualArtsMediaOther",
                    "memberOf": "firstVA",
                    "display": false
                }
            ]
        },
        {
            "type": "section",
            "name": "secondMember",
            "memberOf": "family",
            "labels": {
                "heading": "Second Member"
            },
            "display": false,
            "elements": [
                {
                    "type": "cell",
                    "elements": [
                        {
                            "type": "field",
                            "object": "secondaryFirstName"
                        },
                        {
                            "type": "field",
                            "object": "secondaryLastName"
                        }
                    ]
                },
                {
                    "type": "field",
                    "object": "secondaryPublicName"
                },
                {
                    "type": "field",
                    "object": "secondaryMemberType",
                    "triggers": [
                        {
                            "event": "change",
                            "value": "VA",
                            "actions": [
                                {
                                    "target": "{secondVA}",
                                    "subject": "display",
                                    "value": "checked"
                                }
                            ]
                        },
                        {
                            "event": "change",
                            "value": "XX",
                            "actions": [
                                {
                                    "target": "{secondXX}",
                                    "subject": "display",
                                    "value": "checked"
                                }
                            ]
                        }
                    ]
                },
                {
                    "type": "field",
                    "object": "secondaryTypeOther",
                    "memberOf": "secondXX",
                    "display": false
                },
                {
                    "type": "field",
                    "object": "secondaryVisualArtsMedia",
                    "memberOf": "secondVA",
                    "display": false,
                    "show": "optionwidth:3"
                },
                {
                    "type": "field",
                    "object": "secondaryVisualArtsMediaOther",
                    "memberOf": "secondVA",
                    "display": false
                }
            ]
        },
        {
            "type": "field",
            "object": "businessName",
            "memberOf": "business",
            "display": false
        },
        {
            "type": "field",
            "object": "scratch.feeSelect",
            "labels": {
                "help": "."
            },
            "display": false,
            "triggers": [
                {
                    "event": "change",
                    "actions": [
                        {
                            "subject": "script",
                            "value": "updateFee(this);"
                        }
                    ]
                }
            ]
        },
        {
            "type": "field",
            "object": "membershipFee",
            "enabled": false,
            "show": "width:4,md-3,bs4-lg-2",
            "default": 30
        },
        {
            "type": "captcha",
            "name": "usertest",
            "labels": {
                "heading": "Are you a human?"
            }
        },
        {
            "type": "button",
            "function": "submit",
            "labels": {
                "inner": "Join"
            },
            "show": "purpose:primary"
        }
    ]
}